{
  "type": "tab",
  "id": "c6a37493.9c6be8",
  "label": "Start Flow",
  "flow": [
    {
      "id": "b0f84c4f.4dd8f",
      "type": "http in",
      "z": "c6a37493.9c6be8",
      "name": "start:get-request",
      "url": "/start",
      "method": "get",
      "swaggerDoc": "",
      "x": 283,
      "y": 67,
      "wires": [
        [
          "6771b0e1.6fca"
        ]
      ]
    },
    {
      "id": "35579fe3.2c85e",
      "type": "http response",
      "z": "c6a37493.9c6be8",
      "name": "start:responce",
      "x": 907,
      "y": 66,
      "wires": []
    },
    {
      "id": "6771b0e1.6fca",
      "type": "function",
      "z": "c6a37493.9c6be8",
      "name": "start:method",
      "func": "msg.payload = 'start';\nreturn msg;",
      "outputs": 1,
      "noerr": 0,
      "x": 622,
      "y": 66,
      "wires": [
        [
          "35579fe3.2c85e",
          "7d15e914.ebaea8"
        ]
      ]
    },
    {
      "id": "7d15e914.ebaea8",
      "type": "debug",
      "z": "c6a37493.9c6be8",
      "name": "debug:start",
      "active": true,
      "console": "false",
      "complete": "payload",
      "x": 897,
      "y": 20,
      "wires": []
    }
  ]
}